\BOOKMARK [1][-]{section*.1}{Education}{}% 1
\BOOKMARK [1][-]{section*.2}{Communication\040skills}{}% 2
\BOOKMARK [1][-]{section*.3}{Software\040Engineering\040Skills}{}% 3
\BOOKMARK [1][-]{section*.4}{Software\040Project}{}% 4
